{
	"credit": "Made with Blockbench",
	"parent": "block/block",
	"textures": {
		"bottom": "block/obsidian",
		"side": "disenchanting:block/disenchanter_side",
		"top": "disenchanting:block/disenchanter_top",
		"particle": "item/gold_ingot"
	},
	"elements": [
		{
			"name": "Base",
			"from": [1, 0, 1],
			"to": [15, 12, 15],
			"faces": {
				"north": {"uv": [0, 4, 16, 16], "texture": "#bottom", "cullface": "north"},
				"east": {"uv": [0, 4, 16, 16], "texture": "#bottom", "cullface": "east"},
				"south": {"uv": [0, 4, 16, 16], "texture": "#bottom", "cullface": "south"},
				"west": {"uv": [0, 4, 16, 16], "texture": "#bottom", "cullface": "west"},
				"down": {"uv": [0, 0, 16, 16], "texture": "#bottom", "cullface": "down"}
			}
		},
		{
			"name": "Top",
			"from": [0, 10, 0],
			"to": [16, 12, 16],
			"faces": {
				"north": {"uv": [0, 4, 16, 6], "texture": "#side"},
				"east": {"uv": [0, 4, 16, 6], "texture": "#side"},
				"south": {"uv": [0, 4, 16, 6], "texture": "#side"},
				"west": {"uv": [0, 4, 16, 6], "texture": "#side"},
				"up": {"uv": [0, 0, 16, 16], "texture": "#top"},
				"down": {"uv": [0, 0, 16, 16], "texture": "#top"}
			}
		},
		{
			"name": "Mid-1",
			"from": [0, 9, 0],
			"to": [4, 10, 4],
			"faces": {
				"north": {"uv": [12, 6, 16, 7], "texture": "#side"},
				"east": {"uv": [0, 6, 4, 7], "texture": "#side"},
				"south": {"uv": [12, 6, 16, 7], "texture": "#side"},
				"west": {"uv": [0, 6, 4, 7], "texture": "#side"},
				"up": {"uv": [0, 0, 4, 4], "texture": "#missing"},
				"down": {"uv": [12, 0, 16, 4], "texture": "#top"}
			}
		},
		{
			"name": "Mid-2",
			"from": [12, 9, 0],
			"to": [16, 10, 4],
			"faces": {
				"north": {"uv": [0, 6, 4, 7], "texture": "#side"},
				"east": {"uv": [12, 6, 16, 7], "texture": "#side"},
				"south": {"uv": [0, 6, 4, 7], "texture": "#side"},
				"west": {"uv": [12, 6, 16, 7], "texture": "#side"},
				"up": {"uv": [0, 0, 4, 4], "rotation": 270, "texture": "#missing"},
				"down": {"uv": [12, 0, 16, 4], "rotation": 90, "texture": "#top"}
			}
		},
		{
			"name": "Mid-3",
			"from": [12, 9, 12],
			"to": [16, 10, 16],
			"faces": {
				"north": {"uv": [12, 6, 16, 7], "texture": "#side"},
				"east": {"uv": [0, 6, 4, 7], "texture": "#side"},
				"south": {"uv": [12, 6, 16, 7], "texture": "#side"},
				"west": {"uv": [0, 6, 4, 7], "texture": "#side"},
				"up": {"uv": [0, 0, 4, 4], "texture": "#missing"},
				"down": {"uv": [12, 0, 16, 4], "texture": "#top"}
			}
		},
		{
			"name": "Mid-4",
			"from": [0, 9, 12],
			"to": [4, 10, 16],
			"faces": {
				"north": {"uv": [0, 6, 4, 7], "texture": "#side"},
				"east": {"uv": [12, 6, 16, 7], "texture": "#side"},
				"south": {"uv": [0, 6, 4, 7], "texture": "#side"},
				"west": {"uv": [12, 6, 16, 7], "texture": "#side"},
				"up": {"uv": [0, 0, 4, 4], "rotation": 90, "texture": "#missing"},
				"down": {"uv": [12, 0, 16, 4], "rotation": 270, "texture": "#top"}
			}
		},
		{
			"name": "Lower-1",
			"from": [0, 8, 0],
			"to": [3, 9, 3],
			"faces": {
				"north": {"uv": [13, 7, 16, 8], "texture": "#side"},
				"east": {"uv": [13, 7, 16, 8], "texture": "#side"},
				"south": {"uv": [0, 7, 3, 8], "texture": "#side"},
				"west": {"uv": [0, 7, 3, 8], "texture": "#side"},
				"up": {"uv": [0, 0, 4, 4], "texture": "#missing"},
				"down": {"uv": [0, 12, 4, 16], "texture": "#top"}
			}
		},
		{
			"name": "Lower-2",
			"from": [0, 8, 13],
			"to": [3, 9, 16],
			"faces": {
				"north": {"uv": [13, 7, 16, 8], "texture": "#side"},
				"east": {"uv": [0, 7, 3, 8], "texture": "#side"},
				"south": {"uv": [0, 7, 3, 8], "texture": "#side"},
				"west": {"uv": [13, 7, 16, 8], "texture": "#side"},
				"up": {"uv": [0, 0, 4, 4], "rotation": 270, "texture": "#missing"},
				"down": {"uv": [0, 12, 4, 16], "rotation": 90, "texture": "#top"}
			}
		},
		{
			"name": "Lower-3",
			"from": [13, 8, 13],
			"to": [16, 9, 16],
			"faces": {
				"north": {"uv": [0, 7, 3, 8], "texture": "#side"},
				"east": {"uv": [0, 7, 3, 8], "texture": "#side"},
				"south": {"uv": [13, 7, 16, 8], "texture": "#side"},
				"west": {"uv": [13, 7, 16, 8], "texture": "#side"},
				"up": {"uv": [0, 0, 4, 4], "rotation": 180, "texture": "#missing"},
				"down": {"uv": [0, 12, 4, 16], "rotation": 180, "texture": "#top"}
			}
		},
		{
			"name": "Lower-4",
			"from": [13, 8, 0],
			"to": [16, 9, 3],
			"faces": {
				"north": {"uv": [0, 7, 3, 8], "texture": "#side"},
				"east": {"uv": [13, 7, 16, 8], "texture": "#side"},
				"south": {"uv": [13, 7, 16, 8], "texture": "#side"},
				"west": {"uv": [0, 7, 3, 8], "texture": "#side"},
				"up": {"uv": [0, 0, 4, 4], "rotation": 90, "texture": "#missing"},
				"down": {"uv": [0, 12, 4, 16], "rotation": 270, "texture": "#top"}
			}
		},
		{
			"name": "Cross-A",
			"from": [5, 9, 0],
			"to": [11, 10, 16],
			"faces": {
				"north": {"uv": [5, 6, 11, 7], "texture": "#side"},
				"east": {"uv": [5, 6, 11, 7], "texture": "#side"},
				"south": {"uv": [5, 6, 11, 7], "texture": "#side"},
				"west": {"uv": [5, 6, 11, 7], "texture": "#side"},
				"down": {"uv": [5, 6, 11, 7], "texture": "#side"}
			}
		},
		{
			"name": "Cross-B",
			"from": [6, 8, 0],
			"to": [10, 9, 16],
			"faces": {
				"north": {"uv": [6, 7, 10, 8], "texture": "#side"},
				"east": {"uv": [6, 7, 10, 8], "texture": "#side"},
				"south": {"uv": [6, 7, 10, 8], "texture": "#side"},
				"west": {"uv": [6, 7, 10, 8], "texture": "#side"},
				"down": {"uv": [6, 7, 10, 8], "texture": "#side"}
			}
		},
		{
			"name": "Cross-C",
			"from": [7, 7, 0],
			"to": [9, 8, 16],
			"faces": {
				"north": {"uv": [7, 8, 9, 9], "texture": "#side"},
				"east": {"uv": [7, 8, 9, 9], "texture": "#side"},
				"south": {"uv": [7, 8, 9, 9], "texture": "#side"},
				"west": {"uv": [7, 8, 9, 9], "texture": "#side"},
				"down": {"uv": [7, 8, 9, 9], "texture": "#side"}
			}
		},
		{
			"name": "Cross-1",
			"from": [0, 9, 5],
			"to": [16, 10, 11],
			"faces": {
				"north": {"uv": [5, 6, 11, 7], "texture": "#side"},
				"east": {"uv": [5, 6, 11, 7], "texture": "#side"},
				"south": {"uv": [5, 6, 11, 7], "texture": "#side"},
				"west": {"uv": [5, 6, 11, 7], "texture": "#side"},
				"down": {"uv": [5, 6, 11, 7], "rotation": 90, "texture": "#side"}
			}
		},
		{
			"name": "Cross-2",
			"from": [0, 8, 6],
			"to": [16, 9, 10],
			"faces": {
				"north": {"uv": [6, 7, 10, 8], "texture": "#side"},
				"east": {"uv": [6, 7, 10, 8], "texture": "#side"},
				"south": {"uv": [6, 7, 10, 8], "texture": "#side"},
				"west": {"uv": [6, 7, 10, 8], "texture": "#side"},
				"down": {"uv": [6, 7, 10, 8], "rotation": 90, "texture": "#side"}
			}
		},
		{
			"name": "Cross-3",
			"from": [0, 7, 7],
			"to": [16, 8, 9],
			"faces": {
				"north": {"uv": [7, 8, 9, 9], "texture": "#side"},
				"east": {"uv": [7, 8, 9, 9], "texture": "#side"},
				"south": {"uv": [7, 8, 9, 9], "texture": "#side"},
				"west": {"uv": [7, 8, 9, 9], "texture": "#side"},
				"down": {"uv": [7, 8, 9, 9], "rotation": 90, "texture": "#side"}
			}
		}
	],
	"display": {}
}